sim/waves/tb_afpos_mul.vcd
$date
	Thu Jun 11 16:31:02 2026
$end
$version
	Icarus Verilog
$end
$timescale
	1ps
$end
$scope module tb_afpos_multiplier $end
$var wire 8 ! p [7:0] $end
$var reg 8 " a [7:0] $end
$var reg 8 # b [7:0] $end
$var reg 8 $ exp_p [7:0] $end
$var integer 32 % a_int [31:0] $end
$var integer 32 & b_int [31:0] $end
$var integer 32 ' exp_int [31:0] $end
$var integer 32 ( fail_cnt [31:0] $end
$var integer 32 ) pass_cnt [31:0] $end
$var integer 32 * scan_ret [31:0] $end
$var integer 32 + test_num [31:0] $end
$var integer 32 , vec_fd [31:0] $end
$scope module dut $end
$var wire 8 - a [7:0] $end
$var wire 8 . b [7:0] $end
$var wire 1 / is_zero $end
$var wire 1 0 p_exp_of $end
$var wire 1 1 p_sign $end
$var wire 1 2 round_bit $end
$var wire 8 3 p_packed [7:0] $end
$var wire 3 4 p_mant_pre [2:0] $end
$var wire 3 5 p_mant_final [2:0] $end
$var wire 1 6 p_exp_uf $end
$var wire 6 7 p_exp_raw [5:0] $end
$var wire 4 8 p_exp_clamped [3:0] $end
$var wire 8 9 p [7:0] $end
$var wire 1 : norm_shift $end
$var wire 4 ; mb [3:0] $end
$var wire 3 < mant_trunc [2:0] $end
$var wire 4 = mant_rounded [3:0] $end
$var wire 8 > mant_prod [7:0] $end
$var wire 1 ? mant_ovf $end
$var wire 4 @ ma [3:0] $end
$var wire 6 A exp_sum [5:0] $end
$var wire 6 B exp_adj [5:0] $end
$var wire 1 C b_sign $end
$var wire 3 D b_mant [2:0] $end
$var wire 4 E b_exp [3:0] $end
$var wire 1 F a_sign $end
$var wire 3 G a_mant [2:0] $end
$var wire 4 H a_exp [3:0] $end
$upscope $end
$scope task check $end
$var reg 8 I expected [7:0] $end
$var reg 8 J got [7:0] $end
$var reg 8 K in_a [7:0] $end
$var reg 8 L in_b [7:0] $end
$var integer 32 M t [31:0] $end
$upscope $end
$upscope $end
$enddefinitions $end
$comment Show the parameter values. $end
$dumpall
$end
#0
$dumpvars
bx M
bx L
bx K
bx J
bx I
b0 H
b0 G
0F
b1001 E
b111 D
0C
b0 B
b1001 A
b1000 @
0?
b1111000 >
b111 =
b111 <
b1111 ;
0:
b0 9
b10 8
b10 7
06
b111 5
b111 4
b10111 3
02
01
00
1/
b1001111 .
b0 -
bx ,
b0 +
bx *
b0 )
b0 (
bx '
bx &
bx %
bx $
b1001111 #
b0 "
b0 !
$end
#10000
b0 E
b1000 ;
b0 D
b10 7
b1001 A
b1001 H
b1111000 >
b1111 @
b111 G
b0 #
b0 .
b1001111 "
b1001111 -
b1 +
b1 )
b0 M
b0 I
b0 J
b1001111 L
b0 K
#20000
b0 5
b0 4
b111000 3
b111 8
b0 =
b0 <
b111000 !
b111000 9
b111 E
0/
b111 7
b1110 A
b111 H
b1000000 >
b1000 @
b0 G
b111000 #
b111000 .
b111000 "
b111000 -
b10 +
b10 )
b1 M
b0 L
b1001111 K
#30000
b10111000 !
b10111000 9
b10111000 3
11
1F
b10111000 "
b10111000 -
b11 +
b11 )
b10 M
b111000 I
b111000 J
b111000 L
b111000 K
#40000
b111000 !
b111000 9
b111000 3
01
1C
b10111000 #
b10111000 .
b100 +
b100 )
b11 M
b10111000 I
b10111000 J
b10111000 K
#50000
b1001000 !
b1001000 9
b1001000 3
b1001 8
0C
b1000 E
0F
b1001 7
b10000 A
b1000 H
b1000000 #
b1000000 .
b1000000 "
b1000000 -
b101 +
b101 )
b100 M
b111000 I
b111000 J
b10111000 L
#60000
b110 4
b1111111 !
b1111111 9
b1111 8
b1111111 3
b111 5
b110 =
b110 <
b1 B
1:
10
b1111 E
b1111 ;
b111 D
b11000 7
b11110 A
b1111 H
b11100001 >
b1111 @
b111 G
b1111111 #
b1111111 .
b1111111 "
b1111111 -
b110 +
b110 )
b101 M
b1001000 I
b1001000 J
b1000000 L
b1000000 K
#70000
b0 4
b0 8
b0 3
b0 5
b0 =
b0 <
16
00
b0 B
0:
b0 !
b0 9
b0 E
b1000 ;
b0 D
b111001 7
b0 A
b0 H
b1000000 >
b1000 @
b0 G
1/
b0 $
b0 #
b0 .
b0 "
b0 -
b11 *
b0 '
b0 &
b0 %
b10000000000000000000000000000011 ,
b111 +
b111 )
b110 M
b1111111 I
b1111111 J
b1111111 L
b1111111 K
#80000
06
b0 7
b111 A
b111 E
b111000 #
b111000 .
b111000 &
b1000 +
b1000 )
b111 M
b0 I
b0 J
b0 L
b0 K
#90000
b0 E
b0 7
b111 A
b111 H
b0 #
b0 .
b111000 "
b111000 -
b0 &
b111000 %
b1001 +
b1001 )
b1000 M
b111000 L
#100000
b111000 !
b111000 9
b111000 3
b111 8
b111 7
b1110 A
b111 E
0/
b111000 $
b111000 #
b111000 .
b111000 '
b111000 &
b1010 +
b1010 )
b1001 M
b0 L
b111000 K
#110000
b10111000 !
b10111000 9
b10111000 3
11
1F
b10111000 $
b10111000 "
b10111000 -
b10111000 '
b10111000 %
b1011 +
b1011 )
b1010 M
b111000 I
b111000 J
b111000 L
#120000
b111000 !
b111000 9
b111000 3
01
1C
b111000 $
b10111000 #
b10111000 .
b111000 '
b10111000 &
b1100 +
b1100 )
b1011 M
b10111000 I
b10111000 J
b10111000 K
#130000
b110 4
b1111 8
b1111111 !
b1111111 9
b1111111 3
b111 5
b110 =
b110 <
10
b1 B
1:
0C
b1111 E
b1111 ;
b111 D
0F
b11000 7
b11110 A
b1111 H
b11100001 >
b1111 @
b111 G
b1111111 $
b1111111 #
b1111111 .
b1111111 "
b1111111 -
b1111111 '
b1111111 &
b1111111 %
b1101 +
b1101 )
b1100 M
b111000 I
b111000 J
b10111000 L
#140000
b10 4
b0 !
b0 9
b0 8
b0 3
b0 5
b10 =
b10 <
16
b0 B
0:
00
b0 E
b1001 ;
b1 D
b111001 7
b0 A
b0 H
b1010001 >
b1001 @
b1 G
b0 $
b1 #
b1 .
b1 "
b1 -
b0 '
b1 &
b1 %
b1110 +
b1110 )
b1101 M
b1111111 I
b1111111 J
b1111111 L
b1111111 K
#150000
b0 4
b1001000 !
b1001000 9
b0 5
b1001000 3
b1001 8
b0 =
b0 <
06
b1000 E
b1000 ;
b0 D
b1001 7
b10000 A
b1000 H
b1000000 >
b1000 @
b0 G
b1001000 $
b1000000 #
b1000000 .
b1000000 "
b1000000 -
b1001000 '
b1000000 &
b1000000 %
b1111 +
b1111 )
b1110 M
b0 I
b0 J
b1 L
b1 K
#160000
b111 E
b1001 7
b10000 A
b1001 H
b111000 #
b111000 .
b1001000 "
b1001000 -
b111000 &
b1001000 %
b10000 +
b10000 )
b1111 M
b1001000 I
b1001000 J
b1000000 L
b1000000 K
#170000
b11 4
b0 !
b0 9
b0 3
b0 8
12
b11 =
b10 <
16
b1 B
1:
b0 E
b1110 ;
b110 D
b111101 7
b11 A
b11 H
b10101000 >
b1100 @
b100 G
b0 $
b110 #
b110 .
b11100 "
b11100 -
b0 '
b110 &
b11100 %
b10001 +
b10001 )
b10000 M
b111000 L
b1001000 K
#180000
b100 4
b1001100 !
b1001100 9
b100 5
b1001100 3
b1001 8
b100 <
b100 =
02
06
b111 E
b1001 7
b1111 A
b1000 H
b11000100 >
b1110 @
b110 G
b1001100 $
b111110 #
b111110 .
b1000110 "
b1000110 -
b1001100 '
b111110 &
b1000110 %
b10010 +
b10010 )
b10001 M
b0 I
b0 J
b110 L
b11100 K
#190000
b100100 !
b100100 9
b100100 3
b100 8
b0 B
0:
b100 E
b1011 ;
b11 D
b100 7
b1011 A
b111 H
b1100011 >
b1001 @
b1 G
b100100 $
b100011 #
b100011 .
b111001 "
b111001 -
b100100 '
b100011 &
b111001 %
b10011 +
b10011 )
b10010 M
b1001100 I
b1001100 J
b111110 L
b1000110 K
#200000
b1 4
b0 !
b0 9
b0 5
b0 3
b0 8
b0 <
b1 =
12
16
b1 B
1:
b10 E
b1110 ;
b110 D
b111111 7
b101 A
b11 H
b10001100 >
b1010 @
b10 G
b0 $
b10110 #
b10110 .
b11010 "
b11010 -
b0 '
b10110 &
b11010 %
b10100 +
b10100 )
b10011 M
b100100 I
b100100 J
b100011 L
b111001 K
#210000
b100 4
b111100 !
b111100 9
b100 5
02
b111100 3
b111 8
b100 =
b100 <
b0 B
0:
06
b1 E
b1000 ;
b0 D
b111 7
b1110 A
b1101 H
b1100000 >
b1100 @
b100 G
b111100 $
b1000 #
b1000 .
b1101100 "
b1101100 -
b111100 '
b1000 &
b1101100 %
b10101 +
b10101 )
b10100 M
b0 I
b0 J
b10110 L
b11010 K
#220000
b110 4
b0 !
b0 9
b0 5
b110 =
b110 <
b0 3
b0 8
b1 B
1:
16
b10 E
b1111 ;
b111 D
b111100 7
b10 A
b0 H
b11100001 >
b1111 @
b111 G
b0 $
b10111 #
b10111 .
b111 "
b111 -
b0 '
b10111 &
b111 %
b10110 +
b10110 )
b10101 M
b111100 I
b111100 J
b1000 L
b1101100 K
#230000
b10 4
b111010 !
b111010 9
b10 5
b10 =
b10 <
b111010 3
b111 8
06
b111 E
b10100101 >
b1011 ;
b11 D
b111 7
b1101 A
b110 H
b111010 $
b111011 #
b111011 .
b110111 "
b110111 -
b111010 '
b111011 &
b110111 %
b10111 +
b10111 )
b10110 M
b0 I
b0 J
b10111 L
b111 K
#240000
b1 5
b1 !
b1 9
b1 4
b1 3
b0 8
b0 <
b1 =
12
b110 E
b1010 ;
b10 D
b0 7
b110 A
b0 H
b10001100 >
b1110 @
b110 G
b1 $
b110010 #
b110010 .
b110 "
b110 -
b1 '
b110010 &
b110 %
b11000 +
b11000 )
b10111 M
b111010 I
b111010 J
b111011 L
b110111 K
#250000
b11 5
b1101011 !
b1101011 9
b11 4
b1101011 3
b1101 8
02
b11 =
b11 <
b0 B
0:
b111 E
b1000 ;
b0 D
b1101 7
b10100 A
b1101 H
b1011000 >
b1011 @
b11 G
b1101011 $
b111000 #
b111000 .
b1101011 "
b1101011 -
b1101011 '
b111000 &
b1101011 %
b11001 +
b11001 )
b11000 M
b1 I
b1 J
b110010 L
b110 K
#260000
b1111111 !
b1111111 9
b1 4
b111 5
b1111111 3
b1111 8
10
b1 =
b1 <
b1 B
1:
b1000 E
b1111 ;
b111 D
b10000 7
b10110 A
b1110 H
b10010110 >
b1010 @
b10 G
b1111111 $
b1000111 #
b1000111 .
b1110010 "
b1110010 -
b1111111 '
b1000111 &
b1110010 %
b11010 +
b11010 )
b11001 M
b1101011 I
b1101011 J
b111000 L
b1101011 K
#270000
b0 !
b0 9
b0 8
b0 3
b0 5
16
b0 B
0:
00
b101 E
b1000 ;
b0 D
b111110 7
b101 A
b0 H
b1001000 >
b1001 @
b1 G
b0 $
b101000 #
b101000 .
b1 "
b1 -
b0 '
b101000 &
b1 %
b11011 +
b11011 )
b11010 M
b1111111 I
b1111111 J
b1000111 L
b1110010 K
#280000
b1111 8
b1111111 !
b1111111 9
b11 4
b1111111 3
b111 5
10
b11 =
b11 <
b1 B
1:
06
b1010 E
b1111 ;
b111 D
b10001 7
b10111 A
b1101 H
b10110100 >
b1100 @
b100 G
b1111111 $
b1010111 #
b1010111 .
b1101100 "
b1101100 -
b1111111 '
b1010111 &
b1101100 %
b11100 +
b11100 )
b11011 M
b0 I
b0 J
b101000 L
b1 K
#290000
b110 4
b110 8
b110110 !
b110110 9
b110110 3
b110 5
b110 =
b110 <
00
b100 E
b110 7
b1100 A
b1000 H
b11100001 >
b1111 @
b111 G
b110110 $
b100111 #
b100111 .
b1000111 "
b1000111 -
b110110 '
b100111 &
b1000111 %
b11101 +
b11101 )
b11100 M
b1111111 I
b1111111 J
b1010111 L
b1101100 K
#300000
b101 5
b101 4
b1010101 !
b1010101 9
b1010101 3
b1010 8
b101 =
b101 <
b1010 E
b11010010 >
b1110 ;
b110 D
b1010 7
b10000 A
b110 H
b1010101 $
b1010110 #
b1010110 .
b110111 "
b110111 -
b1010101 '
b1010110 &
b110111 %
b11110 +
b11110 )
b11101 M
b110110 I
b110110 J
b100111 L
b1000111 K
#310000
b1 4
b0 !
b0 9
b0 5
b0 3
b0 8
b1 =
b1 <
16
b10 E
b1111 ;
b111 D
b111111 7
b101 A
b11 H
b10010110 >
b1010 @
b10 G
b0 $
b10111 #
b10111 .
b11010 "
b11010 -
b0 '
b10111 &
b11010 %
b11111 +
b11111 )
b11110 M
b1010101 I
b1010101 J
b1010110 L
b110111 K
#320000
b1000001 !
b1000001 9
b1 5
b1000001 3
b1000 8
b0 B
0:
06
b11 E
b1000 ;
b0 D
b1000 7
b1111 A
b1100 H
b1001000 >
b1001 @
b1 G
b1000001 $
b11000 #
b11000 .
b1100001 "
b1100001 -
b1000001 '
b11000 &
b1100001 %
b100000 +
b100000 )
b11111 M
b0 I
b0 J
b10111 L
b11010 K
#330000
b11 5
b1111011 !
b1111011 9
b11 4
b1111011 3
b1111 8
b11 =
b11 <
b1011 E
b1111 7
b10110 A
b1011 H
b1011000 >
b1011 @
b11 G
b1111011 $
b1011000 #
b1011000 .
b1011011 "
b1011011 -
b1111011 '
b1011000 &
b1011011 %
b100001 +
b100001 )
b100000 M
b1000001 I
b1000001 J
b11000 L
b1100001 K
#340000
b111 5
b111 4
b10111 !
b10111 9
b10111 3
b10 8
b111 =
b111 <
b1 E
b1111001 >
b1011 ;
b11 D
b10 7
b1001 A
b1000 H
b10111 $
b1011 #
b1011 .
b1000011 "
b1000011 -
b10111 '
b1011 &
b1000011 %
b100010 +
b100010 )
b100001 M
b1111011 I
b1111011 J
b1011000 L
b1011011 K
#350000
b100 5
b1011100 !
b1011100 9
b100 4
b1011100 3
b1011 8
b100 =
b100 <
b1 B
1:
b11 E
b1111 ;
b111 D
b1011 7
b10001 A
b1110 H
b11000011 >
b1101 @
b101 G
b1011100 $
b11111 #
b11111 .
b1110101 "
b1110101 -
b1011100 '
b11111 &
b1110101 %
b100011 +
b100011 )
b100010 M
b10111 I
b10111 J
b1011 L
b1000011 K
#360000
b111100 !
b111100 9
b111100 3
b111 8
b0 B
0:
b10 E
b1100 ;
b100 D
b111 7
b1110 A
b1100 H
b1100000 >
b1000 @
b0 G
b111100 $
b10100 #
b10100 .
b1100000 "
b1100000 -
b111100 '
b10100 &
b1100000 %
b100100 +
b100100 )
b100011 M
b1011100 I
b1011100 J
b11111 L
b1110101 K
#370000
b0 5
b1110000 !
b1110000 9
b0 4
b1110000 3
b1110 8
b0 =
b0 <
b1 B
1:
b1011 E
b1110 7
b10100 A
b1001 H
b10000100 >
b1011 @
b11 G
b1110000 $
b1011100 #
b1011100 .
b1001011 "
b1001011 -
b1110000 '
b1011100 &
b1001011 %
b100101 +
b100101 )
b100100 M
b111100 I
b111100 J
b10100 L
b1100000 K
#380000
b10 5
b1010 !
b1010 9
b10 4
b1010 3
b1 8
b10 =
b10 <
b0 B
0:
b10 E
b1001 ;
b1 D
b1 7
b1000 A
b110 H
b1010001 >
b1001 @
b1 G
b1010 $
b10001 #
b10001 .
b110001 "
b110001 -
b1010 '
b10001 &
b110001 %
b100110 +
b100110 )
b100101 M
b1110000 I
b1110000 J
b1011100 L
b1001011 K
#390000
b1110 !
b1110 9
b1110 3
b110 5
b110 4
12
b110 =
b101 <
b111 E
b1010 ;
b10 D
b1 7
b1000 A
b1 H
b1101110 >
b1011 @
b11 G
b1110 $
b111010 #
b111010 .
b1011 "
b1011 -
b1110 '
b111010 &
b1011 %
b100111 +
b100111 )
b100110 M
b1010 I
b1010 J
b10001 L
b110001 K
#400000
b111 5
b100111 !
b100111 9
b111 4
b100111 3
b100 8
02
b111 =
b111 <
b10 E
b1100 ;
b100 D
b100 7
b1011 A
b1001 H
b1111000 >
b1010 @
b10 G
b100111 $
b10100 #
b10100 .
b1001010 "
b1001010 -
b100111 '
b10100 &
b1001010 %
b101000 +
b101000 )
b100111 M
b1110 I
b1110 J
b111010 L
b1011 K
#410000
b100 5
b11100 !
b11100 9
b100 4
b11100 3
b11 8
b100 =
b100 <
b11 E
b1001 ;
b1 D
b11 7
b1010 A
b111 H
b1100011 >
b1011 @
b11 G
b11100 $
b11001 #
b11001 .
b111011 "
b111011 -
b11100 '
b11001 &
b111011 %
b101001 +
b101001 )
b101000 M
b100111 I
b100111 J
b10100 L
b1001010 K
#420000
b0 5
b1110000 !
b1110000 9
b0 4
b1110000 3
b1110 8
b0 =
b0 <
b1 B
1:
b1000 E
b1111 ;
b111 D
b1110 7
b10100 A
b1100 H
b10000111 >
b1001 @
b1 G
b1110000 $
b1000111 #
b1000111 .
b1100001 "
b1100001 -
b1110000 '
b1000111 &
b1100001 %
b101010 +
b101010 )
b101001 M
b11100 I
b11100 J
b11001 L
b111011 K
#430000
b10 4
b1111111 !
b1111111 9
b1111 8
12
b1111111 3
b111 5
b10 =
b1 <
10
b1011 E
b1101 ;
b101 D
b10011 7
b11001 A
b1110 H
b10011100 >
b1100 @
b100 G
b1111111 $
b1011101 #
b1011101 .
b1110100 "
b1110100 -
b1111111 '
b1011101 &
b1110100 %
b101011 +
b101011 )
b101010 M
b1110000 I
b1110000 J
b1000111 L
b1100001 K
#440000
b0 4
b1010 8
b1010000 !
b1010000 9
1?
b1010000 3
b0 5
b1000 =
b111 <
00
b1 B
0:
b1110 ;
b110 D
b1010 7
b10000 A
b101 H
b1111110 >
b1001 @
b1 G
b1010000 $
b1011110 #
b1011110 .
b101001 "
b101001 -
b1010000 '
b1011110 &
b101001 %
b101100 +
b101100 )
b101011 M
b1111111 I
b1111111 J
b1011101 L
b1110100 K
#450000
b1011000 !
b1011000 9
b1011000 3
b1011 8
0?
02
b0 =
b0 <
b1 B
1:
b110 E
b1101 ;
b101 D
b1011 7
b10001 A
b1011 H
b10000010 >
b1010 @
b10 G
b1011000 $
b110101 #
b110101 .
b1011010 "
b1011010 -
b1011000 '
b110101 &
b1011010 %
b101101 +
b101101 )
b101100 M
b1010000 I
b1010000 J
b1011110 L
b101001 K
#460000
b111 5
b11111 !
b11111 9
b111 4
b11111 3
b11 8
b111 =
b111 <
b0 B
0:
b10 E
b1010 ;
b10 D
b11 7
b1010 A
b1000 H
b1111000 >
b1100 @
b100 G
b11111 $
b10010 #
b10010 .
b1000100 "
b1000100 -
b11111 '
b10010 &
b1000100 %
b101110 +
b101110 )
b101101 M
b1011000 I
b1011000 J
b110101 L
b1011010 K
#470000
b10 5
b110010 !
b110010 9
b10 4
b110010 3
b110 8
12
b10 =
b1 <
b1 B
1:
b111 E
b1110 ;
b110 D
b110 7
b1100 A
b101 H
b10011010 >
b1011 @
b11 G
b110010 $
b111110 #
b111110 .
b101011 "
b101011 -
b110010 '
b111110 &
b101011 %
b101111 +
b101111 )
b101110 M
b11111 I
b11111 J
b10010 L
b1000100 K
#480000
b0 5
b1101000 !
b1101000 9
b0 4
b1101000 3
b1101 8
1?
b1000 =
b111 <
b1 B
0:
b1101 7
b10011 A
b1110 E
b1111110 >
b1001 @
b1 G
b1101000 $
b1110110 #
b1110110 .
b101001 "
b101001 -
b1101000 '
b1110110 &
b101001 %
b110000 +
b110000 )
b101111 M
b110010 I
b110010 J
b111110 L
b101011 K
#490000
b111 5
b111 4
b1101111 !
b1101111 9
b0 B
0?
b1101111 3
b1101 8
b111 =
b110 <
b1000 E
b1110101 >
b1101 ;
b101 D
b1101 7
b10100 A
b1100 H
b1101111 $
b1000101 #
b1000101 .
b1100001 "
b1100001 -
b1101111 '
b1000101 &
b1100001 %
b110001 +
b110001 )
b110000 M
b1101000 I
b1101000 J
b1110110 L
b101001 K
#500000
b11 5
b1010011 !
b1010011 9
b11 4
b1010011 3
b1010 8
b11 <
b11 =
02
b1010 E
b1011 ;
b11 D
b1010 7
b10001 A
b111 H
b1011000 >
b1000 @
b0 G
b1010011 $
b1010011 #
b1010011 .
b111000 "
b111000 -
b1010011 '
b1010011 &
b111000 %
b110010 +
b110010 )
b110001 M
b1101111 I
b1101111 J
b1000101 L
b1100001 K
#510000
b1 5
b10001 !
b10001 9
b1 4
b10001 3
b10 8
b0 <
b1 =
12
b1 B
1:
b111 E
b1010 ;
b10 D
b10 7
b1000 A
b1 H
b10001100 >
b1110 @
b110 G
b10001 $
b111010 #
b111010 .
b1110 "
b1110 -
b10001 '
b111010 &
b1110 %
b110011 +
b110011 )
b110010 M
b1010011 I
b1010011 J
b1010011 L
b111000 K
#520000
b0 5
b100000 !
b100000 9
b0 4
b100000 3
b100 8
b0 =
02
b0 B
0:
b100 7
b1011 A
b1010 E
b1000 ;
b0 D
b1000000 >
b1000 @
b0 G
b100000 $
b1010000 #
b1010000 .
b1000 "
b1000 -
b100000 '
b1010000 &
b1000 %
b110100 +
b110100 )
b110011 M
b10001 I
b10001 J
b111010 L
b1110 K
#530000
b11 5
b1110011 !
b1110011 9
b11 4
b1110011 3
b1110 8
12
b11 =
b10 <
b1 B
1:
b1000 E
b1100 ;
b100 D
b1110 7
b10100 A
b1100 H
b10101000 >
b1110 @
b110 G
b1110010 $
b1000100 #
b1000100 .
b1100110 "
b1100110 -
b1110010 '
b1000100 &
b1100110 %
b110101 +
b110101 )
b110100 M
b100000 I
b100000 J
b1010000 L
b1000 K
#540000
b110 5
b1110 !
b1110 9
b110 4
b1110 3
b1 8
b110 <
b110 =
02
b0 B
0:
b110 E
b1110 ;
b110 D
b1 7
b1000 A
b10 H
b1110000 >
b1000 @
b0 G
b1110 $
b110110 #
b110110 .
b10000 "
b10000 -
b1110 '
b110110 &
b10000 %
b110110 +
b1 (
b110101 M
b1110010 I
b1110011 J
b1000100 L
b1100110 K
#550000
b1001110 !
b1001110 9
b1001110 3
b1001 8
b1001 7
b10000 A
b1010 H
b1001110 $
b1010000 "
b1010000 -
b1001110 '
b1010000 %
b110111 +
b110110 )
b110110 M
b1110 I
b1110 J
b110110 L
b10000 K
#560000
b100 4
b1111111 !
b1111111 9
b1111 8
b1111111 3
b111 5
b100 =
b100 <
10
b1 B
1:
b1100 E
b1101 ;
b101 D
b10101 7
b11011 A
b1111 H
b11000011 >
b1111 @
b111 G
b1111111 $
b1100101 #
b1100101 .
b1111111 "
b1111111 -
b1111111 '
b1100101 &
b1111111 %
b111000 +
b110111 )
b110111 M
b1001110 I
b1001110 J
b1010000 K
#570000
b10 4
b1100 8
b1100010 !
b1100010 9
b1100010 3
b10 5
b1 <
b10 =
12
00
b100 E
b1100 ;
b100 D
b1100 7
b10010 A
b1110 H
b10011100 >
b1101 @
b101 G
b1100010 $
b100100 #
b100100 .
b1110101 "
b1110101 -
b1100010 '
b100100 &
b1110101 %
b111001 +
b111000 )
b111000 M
b1111111 I
b1111111 J
b1100101 L
b1111111 K
#580000
b111 5
b101111 !
b101111 9
b111 4
b101111 3
b101 8
02
b111 =
b111 <
b0 B
0:
b1011 ;
b11 D
b101 7
b1100 A
b1000 H
b1111001 >
b1011 @
b11 G
b101111 $
b100011 #
b100011 .
b1000011 "
b1000011 -
b101111 '
b100011 &
b1000011 %
b111010 +
b111001 )
b111001 M
b1100010 I
b1100010 J
b100100 L
b1110101 K
#590000
b10 5
b1001010 !
b1001010 9
b10 4
b1001010 3
b1001 8
b10 =
b10 <
b1 B
1:
b1000 E
b1001 7
b1111 A
b111 H
b10100101 >
b1111 @
b111 G
b1001010 $
b1000011 #
b1000011 .
b111111 "
b111111 -
b1001010 '
b1000011 &
b111111 %
b111011 +
b111010 )
b111010 M
b101111 I
b101111 J
b100011 L
b1000011 K
#600000
b11 4
b1111111 !
b1111111 9
b1111 8
b1111111 3
b111 5
b11 =
b11 <
10
b1100 E
b1110 ;
b110 D
b10011 7
b11001 A
b1101 H
b10110110 >
b1101 @
b101 G
b1111111 $
b1100110 #
b1100110 .
b1101101 "
b1101101 -
b1111111 '
b1100110 &
b1101101 %
b111100 +
b111011 )
b111011 M
b1001010 I
b1001010 J
b1000011 L
b111111 K
#610000
b100 4
b1011 8
b1011100 !
b1011100 9
b1011100 3
b100 5
b100 =
b100 <
00
b0 B
0:
b111 E
b1000 ;
b0 D
b1011 7
b10010 A
b1011 H
b1100000 >
b1100 @
b100 G
b1011100 $
b111000 #
b111000 .
b1011100 "
b1011100 -
b1011100 '
b111000 &
b1011100 %
b111101 +
b111100 )
b111100 M
b1111111 I
b1111111 J
b1100110 L
b1101101 K
#620000
b10 5
b1101010 !
b1101010 9
b10 4
b1101010 3
b1101 8
12
b10 =
b1 <
b1 B
1:
b1111 E
b1110 ;
b110 D
b1101 7
b10011 A
b100 H
b10011010 >
b1011 @
b11 G
b1101010 $
b1111110 #
b1111110 .
b100011 "
b100011 -
b1101010 '
b1111110 &
b100011 %
b111110 +
b111101 )
b111101 M
b1011100 I
b1011100 J
b111000 L
b1011100 K
#630000
b11 4
b0 !
b0 9
b0 5
b0 3
b0 8
b11 <
b11 =
02
16
b1 E
b1100 ;
b100 D
b111101 7
b11 A
b10 H
b10110100 >
b1111 @
b111 G
b0 $
b1100 #
b1100 .
b10111 "
b10111 -
b0 '
b1100 &
b10111 %
b111111 +
b111110 )
b111110 M
b1101010 I
b1101010 J
b1111110 L
b100011 K
#640000
b1011 !
b1011 9
b11 5
b1011 3
b1 8
06
b100 E
b1111 ;
b111 D
b1 7
b111 A
b11 H
b10110100 >
b1100 @
b100 G
b1011 $
b100111 #
b100111 .
b11100 "
b11100 -
b1011 '
b100111 &
b11100 %
b1000000 +
b111111 )
b111111 M
b0 I
b0 J
b1100 L
b10111 K
#650000
b100 5
b1011100 !
b1011100 9
b100 4
b1011100 3
b1011 8
b100 =
b100 <
b0 B
0:
b1101 E
b1100 ;
b100 D
b1011 7
b10010 A
b101 H
b1100000 >
b1000 @
b0 G
b1011100 $
b1101100 #
b1101100 .
b101000 "
b101000 -
b1011100 '
b1101100 &
b101000 %
b1000001 +
b1000000 )
b1000000 M
b1011 I
b1011 J
b100111 L
b11100 K
#660000
b10 5
b10 4
b111010 !
b111010 9
b111010 3
b111 8
b10 =
b10 <
b1100 E
b1010000 >
b1010 ;
b10 D
b111 7
b1110 A
b10 H
b111010 $
b1100010 #
b1100010 .
b10000 "
b10000 -
b111010 '
b1100010 &
b10000 %
b1000010 +
b1000001 )
b1000001 M
b1011100 I
b1011100 J
b1101100 L
b101000 K
#670000
b0 4
b1111111 !
b1111111 9
b1111 8
b1111111 3
b111 5
b0 =
b0 <
b1 B
1:
10
b1110 E
b1111 ;
b111 D
b10100 7
b11010 A
b1100 H
b10000111 >
b1001 @
b1 G
b1111111 $
b1110111 #
b1110111 .
b1100001 "
b1100001 -
b1111111 '
b1110111 &
b1100001 %
b1000011 +
b1000010 )
b1000010 M
b111010 I
b111010 J
b1100010 L
b10000 K
#680000
b10 4
b1 8
b1010 !
b1010 9
b1010 3
b10 5
b10 =
b10 <
00
b0 B
0:
b0 E
b1010 ;
b10 D
b1 7
b1000 A
b1000 H
b1010000 >
b1000 @
b0 G
b1010 $
b10 #
b10 .
b1000000 "
b1000000 -
b1010 '
b10 &
b1000000 %
b1000100 +
b1000011 )
b1000011 M
b1111111 I
b1111111 J
b1110111 L
b1100001 K
#690000
b101010 !
b101010 9
b101010 3
b101 8
12
b10 =
b1 <
b1 B
1:
b1000 E
b1100 ;
b100 D
b101 7
b1011 A
b11 H
b10011100 >
b1101 @
b101 G
b101010 $
b1000100 #
b1000100 .
b11101 "
b11101 -
b101010 '
b1000100 &
b11101 %
b1000101 +
b1000100 )
b1000100 M
b1010 I
b1010 J
b10 L
b1000000 K
#700000
b11 5
b111011 !
b111011 9
b11 4
b111011 3
b111 8
b11 <
b11 =
02
b11 E
b111 7
b1101 A
b1010 H
b10110100 >
b1111 @
b111 G
b111011 $
b11100 #
b11100 .
b1010111 "
b1010111 -
b111011 '
b11100 &
b1010111 %
b1000110 +
b1000101 )
b1000101 M
b101010 I
b101010 J
b1000100 L
b11101 K
#710000
b10 4
b1111111 !
b1111111 9
b1111 8
b1111111 3
b111 5
b10 =
b10 <
10
b1101 E
b1111 ;
b111 D
b10000 7
b10110 A
b1001 H
b10100101 >
b1011 @
b11 G
b1111111 $
b1101111 #
b1101111 .
b1001011 "
b1001011 -
b1111111 '
b1101111 &
b1001011 %
b1000111 +
b1000110 )
b1000110 M
b111011 I
b111011 J
b11100 L
b1010111 K
#720000
b100 4
b1100 8
b1100100 !
b1100100 9
b1100100 3
b100 5
b100 =
b100 <
00
b0 B
0:
b1110 E
b1100 ;
b100 D
b1100 7
b10011 A
b101 H
b1100000 >
b1000 @
b0 G
b1100100 $
b1110100 #
b1110100 .
b101000 "
b101000 -
b1100100 '
b1110100 &
b101000 %
b1001000 +
b1000111 )
b1000111 M
b1111111 I
b1111111 J
b1101111 L
b1001011 K
#730000
b11 5
b11 4
b1011 3
b1 8
b11 =
b11 <
b0 !
b0 9
b1000 E
b1011000 >
b1011 ;
b11 D
b1 7
b1000 A
b0 H
1/
b0 $
b1000011 #
b1000011 .
b0 "
b0 -
b0 '
b1000011 &
b0 %
b1001001 +
b1001000 )
b1001000 M
b1100100 I
b1100100 J
b1110100 L
b101000 K
#740000
b1 5
b1 4
b10001 3
b10 8
b0 <
b1 =
12
b1 B
1:
b10001 !
b10001 9
b11 E
b10 7
b1000 A
b101 H
b10001111 >
b1101 @
b101 G
0/
b10001 $
b11011 #
b11011 .
b101101 "
b101101 -
b10001 '
b11011 &
b101101 %
b1001010 +
b1001001 )
b1001001 M
b0 I
b0 J
b1000011 L
b0 K
#750000
b111 5
b111 4
b1000111 !
b1000111 9
b1000111 3
b1000 8
02
b111 =
b111 <
b0 B
0:
b110 E
b1010 ;
b10 D
b1000 7
b1111 A
b1001 H
b1111000 >
b1100 @
b100 G
b1000111 $
b110010 #
b110010 .
b1001100 "
b1001100 -
b1000111 '
b110010 &
b1001100 %
b1001011 +
b1001010 )
b1001010 M
b10001 I
b10001 J
b11011 L
b101101 K
